{
    "report": {
        "stage": {
            "applicationStage": "bureau"
        },
        "applicant": {
            "qde": {
                "dob": "21-04-1992",
                "pan": "EIBPS7703D",
                "title": "",
                "emails": [
                    {
                        "emailId": "dasd@dsad.com",
                        "emailType": "Personal"
                    }
                ],
                "gender": "Male",
                "phones": [
                    {
                        "phoneType": "Mobile",
                        "phoneNumber": "9000000070"
                    }
                ],
                "lastName": "Sharma",
                "salaried": true,
                "addresses": [
                    {
                        "city": "Delhi",
                        "type": "CURRENT",
                        "state": "Delhi",
                        "country": "IN",
                        "pincode": "110005",
                        "address1": "",
                        "address2": "",
                        "locality": ""
                    }
                ],
                "firstName": "Vivek",
                "idDetails": [
                    {
                        "type": "PAN",
                        "value": "EIBPS7703D"
                    }
                ],
                "fatherName": "",
                "middleName": "",
                "mobileTest": true,
                "bankDetails": [],
                "maritalStatus": "",
                "motherMaidenName": "",
                "occupationDetails": {
                    "companyName": "CLIX CAPITAL SERVICES PRIVATE LIMITED",
                    "monthlySalary": 30000,
                    "annualTurnover": 0,
                    "employmentType": "SALARIED",
                    "establishmentName": ""
                }
            },
            "bureauData": {
                "type": "MB",
                "bureauXML": "<CNS-QUAD-MERGE-REPORT><HEADER><BUREAU-LINK-REF>24205</BUREAU-LINK-REF><LOS-CUST-ID>1560865207226</LOS-CUST-ID><LOS-APP-ID>1560865207226</LOS-APP-ID><PREPARED-FOR>CLIX CAPITAL SERVICES PRIVATE LIMITED X-SELL</PREPARED-FOR><REQUESTID>24205</REQUESTID><DATE-OF-REQUEST>22-04-2022</DATE-OF-REQUEST><DATE-OF-ISSUE>18-06-2019</DATE-OF-ISSUE></HEADER><REPORT-SEGMENT><INQUIRY-INPUT-INFORMATION><APPLICANT-NAME><NAME1><![CDATA[RAVIKUMAR  B K NOT]]></NAME1></APPLICANT-NAME><DOB-AGE><DOB-DATE>25-03-0015</DOB-DATE><AGE>0</AGE></DOB-AGE><IDS><ID><TYPE>PAN</TYPE><VALUE>ATHPK6488L</VALUE></ID><ID><TYPE>PASSPORT</TYPE><VALUE></VALUE></ID><ID><TYPE>Voter ID</TYPE><VALUE></VALUE></ID><ID><TYPE>Driving Licence</TYPE><VALUE></VALUE></ID></IDS><PHONES><PHONE><TELE-NO-TYPE>MOBILE</TELE-NO-TYPE><TELE-NO>7932563565</TELE-NO></PHONE><PHONE><TELE-NO-TYPE>COMPANY</TELE-NO-TYPE><TELE-NO></TELE-NO></PHONE></PHONES><EMAILS><EMAIL></EMAIL></EMAILS><GENDER>male</GENDER><ADDRESSES><ADDRESS><TYPE>Residence</TYPE><ADDRESS-1><![CDATA[road no-5]]></ADDRESS-1><CITY><![CDATA[Patiala]]></CITY><STATE><![CDATA[Punjab]]></STATE><PIN>147201</PIN></ADDRESS><ADDRESS><TYPE>Residence</TYPE><ADDRESS-2><![CDATA[road no-5]]></ADDRESS-2><CITY><![CDATA[Patiala]]></CITY><STATE><![CDATA[Punjab]]></STATE><PIN>147201</PIN></ADDRESS></ADDRESSES><CREDT-INQ-PURPS-TYP><![CDATA[]]></CREDT-INQ-PURPS-TYP><BRANCH></BRANCH><LOAN-AMOUNT>500000</LOAN-AMOUNT></INQUIRY-INPUT-INFORMATION><BUREAU-RESPONSES-SUMMARY><BUREAU-RESPONSES><BUREAU>CRIFHighMark</BUREAU><CONTROL-REF>CLIX190618CR515063710</CONTROL-REF><STATUS>SUCCESS</STATUS></BUREAU-RESPONSES><BUREAU-RESPONSES><BUREAU>CIBIL</BUREAU><CONTROL-REF></CONTROL-REF><STATUS>ERROR</STATUS><ERROR>Invalid Enquiry Member User ID/Password  [NB66117777_UATC2C2            XXXXXXXXXXXXXXXXXXXXXXXXXXXXXX ]</ERROR></BUREAU-RESPONSES><BUREAU-RESPONSES><BUREAU>Experian</BUREAU><CONTROL-REF></CONTROL-REF><STATUS>ERROR</STATUS><ERROR>SYS100005 (Mandatory field missing)</ERROR></BUREAU-RESPONSES></BUREAU-RESPONSES-SUMMARY><CREDIT-SCORES> <CREDIT-SCORE><BUREAU>CRIFHighMark</BUREAU><SCORE-NAME>PERFORM CONSUMER 2.0</SCORE-NAME> <RANGE>300-900</RANGE><SCORE>701</SCORE><SCORING-FACTOR>F-Low Risk</SCORING-FACTOR></CREDIT-SCORE></CREDIT-SCORES><ACCOUNT-SUMMARY><NUMBER-OF-ACCOUNTS-INQUIRIES><NO-OF-ACCOUNTS-INQUIRY><BUREAU>CRIFHighMark</BUREAU><TOTAL-ACCOUNTS>12</TOTAL-ACCOUNTS><ACTIVE-NUMBER-OF-ACCOUNTS>6</ACTIVE-NUMBER-OF-ACCOUNTS><CLOSED-NUMBER-OF-ACCOUNTS>6</CLOSED-NUMBER-OF-ACCOUNTS><ZERO-BALANCES-ACCOUNTS>7</ZERO-BALANCES-ACCOUNTS><TOTAL-NO-OF-INQUIRIES>1</TOTAL-NO-OF-INQUIRIES><TOTAL-NO-OF-INQUIRIES-IN-THIRTY-DAYS>0</TOTAL-NO-OF-INQUIRIES-IN-THIRTY-DAYS><TOTAL-NO-OF-INQUIRIES-IN-SIXTY-DAYS>0</TOTAL-NO-OF-INQUIRIES-IN-SIXTY-DAYS></NO-OF-ACCOUNTS-INQUIRY></NUMBER-OF-ACCOUNTS-INQUIRIES><AMOUNTS-HISTORIES><AMOUNTS-HISTORY><BUREAU>CRIFHighMark</BUREAU><SANCTIONED-AMOUNT>1,01,47,622</SANCTIONED-AMOUNT><CURRENT-BALANCE>10000000000000000000000000000</CURRENT-BALANCE><TOTAL-OVERDUE-BALANCE></TOTAL-OVERDUE-BALANCE><LENGTH-OF-CREDIT-HISTORY-YEAR>10 yr 2 mon</LENGTH-OF-CREDIT-HISTORY-YEAR><AVERAGE-ACCOUNT-AGE-MONTH>2 yr 2 mon</AVERAGE-ACCOUNT-AGE-MONTH></AMOUNTS-HISTORY></AMOUNTS-HISTORIES><DERIVED-ATTRIBUTES></DERIVED-ATTRIBUTES></ACCOUNT-SUMMARY><ACCOUNT-HISTORIES><ACCOUNT-HISTORY><ACCOUNT-TYPE>A15</ACCOUNT-TYPE><SANCTIONED-AMOUNT>7,06,617</SANCTIONED-AMOUNT><DISBURSED-ON>01-01-2005</DISBURSED-ON><ACCOUNT-INFOS><ACCOUNT-INFO><BUREAU>CRIFHighMark</BUREAU><CREDIT-GRANTOR></CREDIT-GRANTOR><ACCT-NUMBER>AC2018080815430</ACCT-NUMBER><DATE-REPORTED>30-03-2019</DATE-REPORTED><DISBURSED-DT>01-01-2005</DISBURSED-DT><OWNERSHIP-IND>Joint</OWNERSHIP-IND><LAST-PAYMENT-DATE></LAST-PAYMENT-DATE><CLOSE-DT></CLOSE-DT><COLLATERAL-TYPE></COLLATERAL-TYPE><COLLATERAL-VALUE></COLLATERAL-VALUE><ACCT-IN-DISPUTE></ACCT-IN-DISPUTE><ORIGINAL-TERM></ORIGINAL-TERM><REMARK></REMARK></ACCOUNT-INFO></ACCOUNT-INFOS><AMOUNTS><AMOUNT><BUREAU>CRIFHighMark</BUREAU><CREDIT-LIMIT></CREDIT-LIMIT><CASH-LIMIT></CASH-LIMIT><INSTALLMENT-AMT>0</INSTALLMENT-AMT><INSTALLMENT-FREQUENCY>Monthly</INSTALLMENT-FREQUENCY><DISBURSED-AMT>400000</DISBURSED-AMT><ACTUAL-PAYMENT-AMOUNT></ACTUAL-PAYMENT-AMOUNT><CURRENT-BALANCE>1000000000</CURRENT-BALANCE><AMOUNT-OVERDUE>0</AMOUNT-OVERDUE></AMOUNT></AMOUNTS><STATUSES><STATUS><BUREAU>CRIFHighMark</BUREAU><ACCOUNT-STATUS>17</ACCOUNT-STATUS><SUIT-FILED-WILFUL-DEFAULT>5</SUIT-FILED-WILFUL-DEFAULT><WRITE-OFF-SETTELED></WRITE-OFF-SETTELED><WRITE-OFF-TOTAL>0</WRITE-OFF-TOTAL><WRITE-OFF-PRINCIPAL></WRITE-OFF-PRINCIPAL><SETTLEMENT-AMT></SETTLEMENT-AMT></STATUS></STATUSES><DPD-ASSET-CLASSIFICATIONS><DPD-ASSET-CLASSIFICATION><BUREAU>CRIFHighMark</BUREAU><DPD>Mar:2021,003/XXX|Mar:2020,000/XXX|Feb:2019,XXX/XXX|Jan:2019,XXX/XXX|Dec:2018,XXX/XXX|Nov:2018,XXX/XXX|Oct:2018,XXX/XXX|Sep:2018,XXX/XXX|</DPD></DPD-ASSET-CLASSIFICATION></DPD-ASSET-CLASSIFICATIONS></ACCOUNT-HISTORY><ACCOUNT-HISTORY><ACCOUNT-TYPE>A06</ACCOUNT-TYPE><SANCTIONED-AMOUNT>67,96,761</SANCTIONED-AMOUNT><DISBURSED-ON>22-04-2021</DISBURSED-ON><ACCOUNT-INFOS><ACCOUNT-INFO><BUREAU>CRIFHighMark</BUREAU><CREDIT-GRANTOR></CREDIT-GRANTOR><ACCT-NUMBER>XXXX</ACCT-NUMBER><DATE-REPORTED>30-04-2019</DATE-REPORTED><DISBURSED-DT>22-04-2021</DISBURSED-DT><OWNERSHIP-IND>Individual</OWNERSHIP-IND><LAST-PAYMENT-DATE></LAST-PAYMENT-DATE><CLOSE-DT></CLOSE-DT><COLLATERAL-TYPE>1</COLLATERAL-TYPE><COLLATERAL-VALUE>67,96,761</COLLATERAL-VALUE><ACCT-IN-DISPUTE></ACCT-IN-DISPUTE><ORIGINAL-TERM></ORIGINAL-TERM><REMARK></REMARK></ACCOUNT-INFO></ACCOUNT-INFOS><AMOUNTS><AMOUNT><BUREAU>CRIFHighMark</BUREAU><CREDIT-LIMIT></CREDIT-LIMIT><CASH-LIMIT></CASH-LIMIT><INSTALLMENT-AMT>72,834</INSTALLMENT-AMT><INSTALLMENT-FREQUENCY>Monthly</INSTALLMENT-FREQUENCY><DISBURSED-AMT>400000</DISBURSED-AMT><ACTUAL-PAYMENT-AMOUNT>72,834</ACTUAL-PAYMENT-AMOUNT><CURRENT-BALANCE>200000</CURRENT-BALANCE><AMOUNT-OVERDUE>4999</AMOUNT-OVERDUE></AMOUNT></AMOUNTS><STATUSES><STATUS><BUREAU>CRIFHighMark</BUREAU><ACCOUNT-STATUS>17</ACCOUNT-STATUS><SUIT-FILED-WILFUL-DEFAULT></SUIT-FILED-WILFUL-DEFAULT><WRITE-OFF-SETTELED></WRITE-OFF-SETTELED><WRITE-OFF-TOTAL>0</WRITE-OFF-TOTAL><WRITE-OFF-PRINCIPAL></WRITE-OFF-PRINCIPAL><SETTLEMENT-AMT></SETTLEMENT-AMT></STATUS></STATUSES><DPD-ASSET-CLASSIFICATIONS><DPD-ASSET-CLASSIFICATION><BUREAU>CRIFHighMark</BUREAU><DPD>Apr:2019,000/XXX|Mar:2019,000/XXX|Feb:2019,000/XXX|Jan:2019,000/XXX|Dec:2018,000/XXX|Nov:2018,000/XXX|Oct:2018,000/XXX|Sep:2018,000/XXX|Aug:2018,000/XXX|Jul:2018,000/XXX|Jun:2018,000/XXX|May:2018,000/XXX|Apr:2018,XXX/XXX|Mar:2018,000/XXX|Feb:2018,000/XXX|Jan:2018,000/XXX|Dec:2017,000/XXX|</DPD></DPD-ASSET-CLASSIFICATION></DPD-ASSET-CLASSIFICATIONS></ACCOUNT-HISTORY><ACCOUNT-HISTORY><ACCOUNT-TYPE>A12</ACCOUNT-TYPE><SANCTIONED-AMOUNT>29,00,000</SANCTIONED-AMOUNT><DISBURSED-ON>19-05-2020</DISBURSED-ON><ACCOUNT-INFOS><ACCOUNT-INFO><BUREAU>CRIFHighMark</BUREAU><CREDIT-GRANTOR></CREDIT-GRANTOR><ACCT-NUMBER>XXXX</ACCT-NUMBER><DATE-REPORTED>30-04-2019</DATE-REPORTED><DISBURSED-DT>19-05-2020</DISBURSED-DT><OWNERSHIP-IND>Individual</OWNERSHIP-IND><LAST-PAYMENT-DATE>08-01-2018</LAST-PAYMENT-DATE><CLOSE-DT></CLOSE-DT><COLLATERAL-TYPE></COLLATERAL-TYPE><COLLATERAL-VALUE></COLLATERAL-VALUE><ACCT-IN-DISPUTE></ACCT-IN-DISPUTE><ORIGINAL-TERM></ORIGINAL-TERM><REMARK></REMARK></ACCOUNT-INFO></ACCOUNT-INFOS><AMOUNTS><AMOUNT><BUREAU>CRIFHighMark</BUREAU><CREDIT-LIMIT></CREDIT-LIMIT><CASH-LIMIT></CASH-LIMIT><INSTALLMENT-AMT></INSTALLMENT-AMT><INSTALLMENT-FREQUENCY></INSTALLMENT-FREQUENCY><DISBURSED-AMT>400000</DISBURSED-AMT><ACTUAL-PAYMENT-AMOUNT></ACTUAL-PAYMENT-AMOUNT><CURRENT-BALANCE>60000</CURRENT-BALANCE><AMOUNT-OVERDUE></AMOUNT-OVERDUE></AMOUNT></AMOUNTS><STATUSES><STATUS><BUREAU>CRIFHighMark</BUREAU><ACCOUNT-STATUS>16</ACCOUNT-STATUS><SUIT-FILED-WILFUL-DEFAULT></SUIT-FILED-WILFUL-DEFAULT><WRITE-OFF-SETTELED></WRITE-OFF-SETTELED><WRITE-OFF-TOTAL>0</WRITE-OFF-TOTAL><WRITE-OFF-PRINCIPAL></WRITE-OFF-PRINCIPAL><SETTLEMENT-AMT></SETTLEMENT-AMT></STATUS></STATUSES><DPD-ASSET-CLASSIFICATIONS><DPD-ASSET-CLASSIFICATION><BUREAU>CRIFHighMark</BUREAU><DPD>Jan:2018,000/STD|Dec:2017,000/STD|Nov:2017,000/STD|Oct:2017,000/STD|Sep:2017,000/STD|Aug:2017,000/STD|Jul:2017,000/STD|Jun:2017,000/STD|May:2017,XXX/XXX|Apr:2017,000/STD|Mar:2017,000/STD|Feb:2017,000/STD|Jan:2017,000/STD|</DPD></DPD-ASSET-CLASSIFICATION></DPD-ASSET-CLASSIFICATIONS></ACCOUNT-HISTORY><ACCOUNT-HISTORY><ACCOUNT-TYPE>A09</ACCOUNT-TYPE><SANCTIONED-AMOUNT>1,70,000</SANCTIONED-AMOUNT><DISBURSED-ON>16-06-2020</DISBURSED-ON><ACCOUNT-INFOS><ACCOUNT-INFO><BUREAU>CRIFHighMark</BUREAU><CREDIT-GRANTOR></CREDIT-GRANTOR><ACCT-NUMBER>XXXX</ACCT-NUMBER><DATE-REPORTED>31-10-2014</DATE-REPORTED><DISBURSED-DT>16-06-2020</DISBURSED-DT><OWNERSHIP-IND>Individual</OWNERSHIP-IND><LAST-PAYMENT-DATE>31-03-2012</LAST-PAYMENT-DATE><CLOSE-DT></CLOSE-DT><COLLATERAL-TYPE></COLLATERAL-TYPE><COLLATERAL-VALUE></COLLATERAL-VALUE><ACCT-IN-DISPUTE></ACCT-IN-DISPUTE><ORIGINAL-TERM></ORIGINAL-TERM><REMARK></REMARK></ACCOUNT-INFO></ACCOUNT-INFOS><AMOUNTS><AMOUNT><BUREAU>CRIFHighMark</BUREAU><CREDIT-LIMIT></CREDIT-LIMIT><CASH-LIMIT></CASH-LIMIT><INSTALLMENT-AMT>3,075</INSTALLMENT-AMT><INSTALLMENT-FREQUENCY></INSTALLMENT-FREQUENCY><DISBURSED-AMT>400000</DISBURSED-AMT><ACTUAL-PAYMENT-AMOUNT>1,70,000</ACTUAL-PAYMENT-AMOUNT><CURRENT-BALANCE>30000</CURRENT-BALANCE><AMOUNT-OVERDUE></AMOUNT-OVERDUE></AMOUNT></AMOUNTS><STATUSES><STATUS><BUREAU>CRIFHighMark</BUREAU><ACCOUNT-STATUS>16</ACCOUNT-STATUS><SUIT-FILED-WILFUL-DEFAULT></SUIT-FILED-WILFUL-DEFAULT><WRITE-OFF-SETTELED></WRITE-OFF-SETTELED><WRITE-OFF-TOTAL>0</WRITE-OFF-TOTAL><WRITE-OFF-PRINCIPAL></WRITE-OFF-PRINCIPAL><SETTLEMENT-AMT></SETTLEMENT-AMT></STATUS></STATUSES><DPD-ASSET-CLASSIFICATIONS><DPD-ASSET-CLASSIFICATION><BUREAU>CRIFHighMark</BUREAU><DPD>Mar:2012,000/XXX|Feb:2012,000/XXX|Jan:2012,000/XXX|Dec:2011,000/XXX|Nov:2011,000/XXX|Oct:2011,XXX/XXX|Sep:2011,XXX/XXX|Aug:2011,XXX/XXX|Jul:2011,XXX/XXX|Jun:2011,XXX/XXX|May:2011,XXX/XXX|Apr:2011,XXX/XXX|Mar:2011,XXX/XXX|Feb:2011,XXX/XXX|Jan:2011,XXX/XXX|Dec:2010,XXX/XXX|Nov:2010,XXX/XXX|Oct:2010,XXX/XXX|Sep:2010,XXX/XXX|Aug:2010,XXX/XXX|Jul:2010,XXX/XXX|Jun:2010,XXX/XXX|May:2010,XXX/XXX|Apr:2010,XXX/XXX|Mar:2010,XXX/XXX|Feb:2010,XXX/XXX|Jan:2010,XXX/XXX|Dec:2009,XXX/XXX|Nov:2009,XXX/XXX|Oct:2009,XXX/XXX|Sep:2009,XXX/XXX|Aug:2009,XXX/XXX|Jul:2009,XXX/XXX|Jun:2009,XXX/XXX|May:2009,XXX/XXX|</DPD></DPD-ASSET-CLASSIFICATION></DPD-ASSET-CLASSIFICATIONS></ACCOUNT-HISTORY><ACCOUNT-HISTORY><ACCOUNT-TYPE>A15</ACCOUNT-TYPE><SANCTIONED-AMOUNT>50,000</SANCTIONED-AMOUNT><DISBURSED-ON>13-06-2020</DISBURSED-ON><ACCOUNT-INFOS><ACCOUNT-INFO><BUREAU>CRIFHighMark</BUREAU><CREDIT-GRANTOR></CREDIT-GRANTOR><ACCT-NUMBER>XXXX</ACCT-NUMBER><DATE-REPORTED>28-02-2014</DATE-REPORTED><DISBURSED-DT>13-06-2020</DISBURSED-DT><OWNERSHIP-IND>Joint</OWNERSHIP-IND><LAST-PAYMENT-DATE></LAST-PAYMENT-DATE><CLOSE-DT></CLOSE-DT><COLLATERAL-TYPE></COLLATERAL-TYPE><COLLATERAL-VALUE></COLLATERAL-VALUE><ACCT-IN-DISPUTE></ACCT-IN-DISPUTE><ORIGINAL-TERM></ORIGINAL-TERM><REMARK></REMARK></ACCOUNT-INFO></ACCOUNT-INFOS><AMOUNTS><AMOUNT><BUREAU>CRIFHighMark</BUREAU><CREDIT-LIMIT>1000</CREDIT-LIMIT><CASH-LIMIT></CASH-LIMIT><INSTALLMENT-AMT></INSTALLMENT-AMT><INSTALLMENT-FREQUENCY></INSTALLMENT-FREQUENCY><DISBURSED-AMT>400000</DISBURSED-AMT><ACTUAL-PAYMENT-AMOUNT></ACTUAL-PAYMENT-AMOUNT><CURRENT-BALANCE>40000</CURRENT-BALANCE><AMOUNT-OVERDUE>0</AMOUNT-OVERDUE></AMOUNT></AMOUNTS><STATUSES><STATUS><BUREAU>CRIFHighMark</BUREAU><ACCOUNT-STATUS>16</ACCOUNT-STATUS><SUIT-FILED-WILFUL-DEFAULT></SUIT-FILED-WILFUL-DEFAULT><WRITE-OFF-SETTELED></WRITE-OFF-SETTELED><WRITE-OFF-TOTAL>0</WRITE-OFF-TOTAL><WRITE-OFF-PRINCIPAL>0</WRITE-OFF-PRINCIPAL><SETTLEMENT-AMT></SETTLEMENT-AMT></STATUS></STATUSES><DPD-ASSET-CLASSIFICATIONS><DPD-ASSET-CLASSIFICATION><BUREAU>CRIFHighMark</BUREAU><DPD>Jul:2009,XXX/XXX|Jun:2009,XXX/XXX|May:2009,XXX/XXX|Apr:2009,XXX/XXX|Mar:2009,XXX/XXX|Feb:2009,XXX/XXX|Jan:2009,XXX/XXX|Dec:2008,XXX/XXX|Nov:2008,XXX/XXX|Oct:2008,XXX/XXX|Sep:2008,XXX/XXX|Aug:2008,XXX/XXX|Jul:2008,XXX/XXX|Jun:2008,XXX/XXX|May:2008,XXX/XXX|Apr:2008,XXX/XXX|Mar:2008,XXX/XXX|Feb:2008,XXX/XXX|Jan:2008,XXX/XXX|</DPD></DPD-ASSET-CLASSIFICATION></DPD-ASSET-CLASSIFICATIONS></ACCOUNT-HISTORY><ACCOUNT-HISTORY><ACCOUNT-TYPE>A12</ACCOUNT-TYPE><SANCTIONED-AMOUNT>98,123</SANCTIONED-AMOUNT><DISBURSED-ON>05-07-2020</DISBURSED-ON><ACCOUNT-INFOS><ACCOUNT-INFO><BUREAU>CRIFHighMark</BUREAU><CREDIT-GRANTOR></CREDIT-GRANTOR><ACCT-NUMBER>XXXX</ACCT-NUMBER><DATE-REPORTED>30-04-2019</DATE-REPORTED><DISBURSED-DT>05-07-2020</DISBURSED-DT><OWNERSHIP-IND>Individual</OWNERSHIP-IND><LAST-PAYMENT-DATE>17-04-2019</LAST-PAYMENT-DATE><CLOSE-DT></CLOSE-DT><COLLATERAL-TYPE></COLLATERAL-TYPE><COLLATERAL-VALUE></COLLATERAL-VALUE><ACCT-IN-DISPUTE></ACCT-IN-DISPUTE><ORIGINAL-TERM></ORIGINAL-TERM><REMARK></REMARK></ACCOUNT-INFO></ACCOUNT-INFOS><AMOUNTS><AMOUNT><BUREAU>CRIFHighMark</BUREAU><CREDIT-LIMIT></CREDIT-LIMIT><CASH-LIMIT></CASH-LIMIT><INSTALLMENT-AMT></INSTALLMENT-AMT><INSTALLMENT-FREQUENCY></INSTALLMENT-FREQUENCY><DISBURSED-AMT>400000</DISBURSED-AMT><ACTUAL-PAYMENT-AMOUNT></ACTUAL-PAYMENT-AMOUNT><CURRENT-BALANCE>50000</CURRENT-BALANCE><AMOUNT-OVERDUE></AMOUNT-OVERDUE></AMOUNT></AMOUNTS><STATUSES><STATUS><BUREAU>CRIFHighMark</BUREAU><ACCOUNT-STATUS>17</ACCOUNT-STATUS><SUIT-FILED-WILFUL-DEFAULT></SUIT-FILED-WILFUL-DEFAULT><WRITE-OFF-SETTELED></WRITE-OFF-SETTELED><WRITE-OFF-TOTAL>0</WRITE-OFF-TOTAL><WRITE-OFF-PRINCIPAL></WRITE-OFF-PRINCIPAL><SETTLEMENT-AMT></SETTLEMENT-AMT></STATUS></STATUSES><DPD-ASSET-CLASSIFICATIONS><DPD-ASSET-CLASSIFICATION><BUREAU>CRIFHighMark</BUREAU><DPD>Apr:2019,000/XXX|Mar:2019,000/XXX|Feb:2019,000/XXX|Jan:2019,000/XXX|Dec:2018,000/XXX|Nov:2018,000/XXX|Oct:2018,000/XXX|Sep:2018,000/XXX|Aug:2018,000/XXX|Jul:2018,000/XXX|Jun:2018,000/XXX|May:2018,000/XXX|Apr:2018,000/XXX|Mar:2018,000/XXX|Feb:2018,000/XXX|Jan:2018,000/XXX|Dec:2017,000/XXX|Nov:2017,000/XXX|Oct:2017,000/XXX|Sep:2017,000/XXX|Aug:2017,000/XXX|Jul:2017,000/XXX|Jun:2017,000/XXX|May:2017,000/XXX|Apr:2017,000/XXX|Mar:2017,000/XXX|Feb:2017,000/XXX|Jan:2017,000/XXX|Dec:2016,000/XXX|Nov:2016,000/XXX|Oct:2016,000/XXX|Sep:2016,000/XXX|Aug:2016,000/XXX|Jul:2016,000/XXX|Jun:2016,000/XXX|May:2016,000/XXX|</DPD></DPD-ASSET-CLASSIFICATION></DPD-ASSET-CLASSIFICATIONS></ACCOUNT-HISTORY></ACCOUNT-HISTORIES><INQUIRY-HISTORY><INQUIRY><BUREAU>CRIFHighMark</BUREAU><MEMBER-NAME>XXXX</MEMBER-NAME><DATE>28-07-2018</DATE><PURPOSE>Business Loan General</PURPOSE><OWNERSHIP-TYPE>PRIMARY</OWNERSHIP-TYPE><AMOUNT>20,00,000</AMOUNT><REMARK></REMARK></INQUIRY></INQUIRY-HISTORY><PERSONAL-INFO-VARIATIONS><NAME-VARIATIONS><NAME-VARIATION><BUREAU>CRIFHighMark</BUREAU><VALUE>B K RAVI KUMAR</VALUE><REPORTED-DATE>31-12-0036</REPORTED-DATE></NAME-VARIATION><NAME-VARIATION><BUREAU>CRIFHighMark</BUREAU><VALUE>B KALACHARI RAVIKUMAR</VALUE><REPORTED-DATE>10-10-0035</REPORTED-DATE></NAME-VARIATION><NAME-VARIATION><BUREAU>CRIFHighMark</BUREAU><VALUE>RAVI KUMAR</VALUE><REPORTED-DATE>10-07-0036</REPORTED-DATE></NAME-VARIATION><NAME-VARIATION><BUREAU>CRIFHighMark</BUREAU><VALUE>RAVI KUMAR BK</VALUE><REPORTED-DATE>10-10-0035</REPORTED-DATE></NAME-VARIATION><NAME-VARIATION><BUREAU>CRIFHighMark</BUREAU><VALUE>RAVIKUMAR B K NOT-AVAIL</VALUE><REPORTED-DATE>10-10-0035</REPORTED-DATE></NAME-VARIATION><NAME-VARIATION><BUREAU>CRIFHighMark</BUREAU><VALUE>RAVIKUMAR B KALACHARI</VALUE><REPORTED-DATE>10-10-0035</REPORTED-DATE></NAME-VARIATION></NAME-VARIATIONS><DOB-VARIATIONS><DOB-VARIATION><BUREAU>CRIFHighMark</BUREAU><VALUE>09-07-1971</VALUE><REPORTED-DATE>31-12-0036</REPORTED-DATE></DOB-VARIATION></DOB-VARIATIONS><PAN-VARIATIONS><PAN-VARIATION><BUREAU>CRIFHighMark</BUREAU><VALUE>ATHPK6488L</VALUE><REPORTED-DATE>31-12-0036</REPORTED-DATE></PAN-VARIATION></PAN-VARIATIONS><PASSPORT-VARIATIONS></PASSPORT-VARIATIONS><VOTERID-VARIATIONS><VOTERID-VARIATION><BUREAU>CRIFHighMark</BUREAU><VALUE>MCL6007215</VALUE><REPORTED-DATE>10-07-0036</REPORTED-DATE></VOTERID-VARIATION></VOTERID-VARIATIONS><DRIVING-LICENCE-VARIATIONS></DRIVING-LICENCE-VARIATIONS><RATION-CARD-VARIATIONS></RATION-CARD-VARIATIONS><UID-VARIATIONS></UID-VARIATIONS><ADITTIONAL-ID-VARIATIONS><ADITTIONAL-ID-VARIATION><BUREAU>CRIFHighMark</BUREAU><VALUE>KA0219930002954</VALUE><REPORTED-DATE>08-06-0037</REPORTED-DATE></ADITTIONAL-ID-VARIATION></ADITTIONAL-ID-VARIATIONS><PHONE-VARIATIONS><PHONE-VARIATION><BUREAU>CRIFHighMark</BUREAU><VALUE><![CDATA[08023498150]]></VALUE><REPORTED-DATE>31-10-0036</REPORTED-DATE></PHONE-VARIATION><PHONE-VARIATION><BUREAU>CRIFHighMark</BUREAU><VALUE><![CDATA[080-23498150]]></VALUE><REPORTED-DATE>05-04-0037</REPORTED-DATE></PHONE-VARIATION><PHONE-VARIATION><BUREAU>CRIFHighMark</BUREAU><VALUE><![CDATA[09845516854]]></VALUE><REPORTED-DATE>01-11-0036</REPORTED-DATE></PHONE-VARIATION><PHONE-VARIATION><BUREAU>CRIFHighMark</BUREAU><VALUE><![CDATA[21212121]]></VALUE><REPORTED-DATE>10-10-0035</REPORTED-DATE></PHONE-VARIATION><PHONE-VARIATION><BUREAU>CRIFHighMark</BUREAU><VALUE><![CDATA[23498150]]></VALUE><REPORTED-DATE>08-06-0037</REPORTED-DATE></PHONE-VARIATION><PHONE-VARIATION><BUREAU>CRIFHighMark</BUREAU><VALUE><![CDATA[7813886757]]></VALUE><REPORTED-DATE>10-10-0035</REPORTED-DATE></PHONE-VARIATION><PHONE-VARIATION><BUREAU>CRIFHighMark</BUREAU><VALUE><![CDATA[80 23498150]]></VALUE><REPORTED-DATE>10-07-0036</REPORTED-DATE></PHONE-VARIATION><PHONE-VARIATION><BUREAU>CRIFHighMark</BUREAU><VALUE><![CDATA[8023221506]]></VALUE><REPORTED-DATE>10-07-0036</REPORTED-DATE></PHONE-VARIATION><PHONE-VARIATION><BUREAU>CRIFHighMark</BUREAU><VALUE><![CDATA[9845393476]]></VALUE><REPORTED-DATE>10-10-0035</REPORTED-DATE></PHONE-VARIATION><PHONE-VARIATION><BUREAU>CRIFHighMark</BUREAU><VALUE><![CDATA[9845516854]]></VALUE><REPORTED-DATE>10-10-0035</REPORTED-DATE></PHONE-VARIATION></PHONE-VARIATIONS><EMAIL-VARIATIONS><EMAIL-VARIATION><BUREAU>CRIFHighMark</BUREAU><VALUE>denimravi777@gmail.com</VALUE><REPORTED-DATE>10-10-0035</REPORTED-DATE></EMAIL-VARIATION><EMAIL-VARIATION><BUREAU>CRIFHighMark</BUREAU><VALUE>deniumravi777@gmail.com</VALUE><REPORTED-DATE>10-10-0035</REPORTED-DATE></EMAIL-VARIATION><EMAIL-VARIATION><BUREAU>CRIFHighMark</BUREAU><VALUE>ravikumar@gmal.com</VALUE><REPORTED-DATE>08-06-0037</REPORTED-DATE></EMAIL-VARIATION><EMAIL-VARIATION><BUREAU>CRIFHighMark</BUREAU><VALUE>ravikumar1971@gmail.com</VALUE><REPORTED-DATE>05-02-0037</REPORTED-DATE></EMAIL-VARIATION></EMAIL-VARIATIONS><ADDRESS-VARIATIONS><ADDRESS-VARIATION><BUREAU>CRIFHighMark</BUREAU><VALUE><![CDATA[43 ,  6TH MAIN ROAD,  5TH CROSS MAHALAKSHMI PURAM J C NAGAR BANGALORE KARNATAKA 560086 KA]]></VALUE><REPORTED-DATE>10-10-0035</REPORTED-DATE></ADDRESS-VARIATION><ADDRESS-VARIATION><BUREAU>CRIFHighMark</BUREAU><VALUE><![CDATA[62 AND 63 LAVAKUSHA NAGAR LAGGERE BANGALORE 560057 KA]]></VALUE><REPORTED-DATE>10-05-0036</REPORTED-DATE></ADDRESS-VARIATION><ADDRESS-VARIATION><BUREAU>CRIFHighMark</BUREAU><VALUE><![CDATA[6TH CROSS,  J C NAGAR,  KURUBARAHALLI,  MAHALAKSHMI LAYOUT,  BANGALORE 560086 KA]]></VALUE><REPORTED-DATE>10-10-0035</REPORTED-DATE></ADDRESS-VARIATION><ADDRESS-VARIATION><BUREAU>CRIFHighMark</BUREAU><VALUE><![CDATA[G K GARMENTS 122 2ND MAIN,  KURU BARAHALLI,  BANGALORE 560086 KA]]></VALUE><REPORTED-DATE>10-10-0035</REPORTED-DATE></ADDRESS-VARIATION><ADDRESS-VARIATION><BUREAU>CRIFHighMark</BUREAU><VALUE><![CDATA[G K GARMENTS NO 122 2ND MAIN KURUBARAHALLI BANGALORE 560086 KA]]></VALUE><REPORTED-DATE>10-10-0035</REPORTED-DATE></ADDRESS-VARIATION><ADDRESS-VARIATION><BUREAU>CRIFHighMark</BUREAU><VALUE><![CDATA[G K GARMENTS NO 22 2ND MAIN KURUBARAHALL I NEAR BY RAVI ENGLISH SCHOOL 560086 KA]]></VALUE><REPORTED-DATE>05-08-0033</REPORTED-DATE></ADDRESS-VARIATION><ADDRESS-VARIATION><BUREAU>CRIFHighMark</BUREAU><VALUE><![CDATA[G K GARMENTS NO 22 2ND MAIN KURUBARAHALLI 560086 KA]]></VALUE><REPORTED-DATE>03-06-0037</REPORTED-DATE></ADDRESS-VARIATION><ADDRESS-VARIATION><BUREAU>CRIFHighMark</BUREAU><VALUE><![CDATA[NO 121 5TH MAIN 11TH CROSS JC NAGAR BANG ALORE BANGALORE 560086 KA]]></VALUE><REPORTED-DATE>10-10-0035</REPORTED-DATE></ADDRESS-VARIATION><ADDRESS-VARIATION><BUREAU>CRIFHighMark</BUREAU><VALUE><![CDATA[NO 121 6TH A MAIN RD 11TH CRS JC NAGAR KURUBARAHALLI BANGALORE 560086 AP]]></VALUE><REPORTED-DATE>10-10-0035</REPORTED-DATE></ADDRESS-VARIATION><ADDRESS-VARIATION><BUREAU>CRIFHighMark</BUREAU><VALUE><![CDATA[NO 121 6TH A MAIN ROAD 11TH CROSS J C NA GAR KURUBARA HALLI NEAR BY SATHAYA NARAY ANA KALYANA MAN 560086 KA]]></VALUE><REPORTED-DATE>10-07-0036</REPORTED-DATE></ADDRESS-VARIATION><ADDRESS-VARIATION><BUREAU>CRIFHighMark</BUREAU><VALUE><![CDATA[NO 121 6TH A MAIN ROAD 11TH CROSS J C NAGAR KURUBARA HALLI 560086 KA]]></VALUE><REPORTED-DATE>03-06-0037</REPORTED-DATE></ADDRESS-VARIATION><ADDRESS-VARIATION><BUREAU>CRIFHighMark</BUREAU><VALUE><![CDATA[NO 121 6TH A MAIN ROAD 11TH CROSS J C NAGAR KURUBARAHALLI BANGALORE 560086 KA]]></VALUE><REPORTED-DATE>08-06-0037</REPORTED-DATE></ADDRESS-VARIATION><ADDRESS-VARIATION><BUREAU>CRIFHighMark</BUREAU><VALUE><![CDATA[NO 121 6TH A MAIN ROAD I C NAGAR KURBARA HALLI BANGALORE 560086 KA]]></VALUE><REPORTED-DATE>01-11-0036</REPORTED-DATE></ADDRESS-VARIATION><ADDRESS-VARIATION><BUREAU>CRIFHighMark</BUREAU><VALUE><![CDATA[NO 121 6TH MAIN 11TH CROSS JC NAGAR MAHALAKSHMI LAYOUT B BANGALORE 560086 KA]]></VALUE><REPORTED-DATE>10-10-0035</REPORTED-DATE></ADDRESS-VARIATION><ADDRESS-VARIATION><BUREAU>CRIFHighMark</BUREAU><VALUE><![CDATA[NO 122 2ND MAIN KURUBARAHALLI BANGALORE 560086 KA]]></VALUE><REPORTED-DATE>10-05-0036</REPORTED-DATE></ADDRESS-VARIATION><ADDRESS-VARIATION><BUREAU>CRIFHighMark</BUREAU><VALUE><![CDATA[NO 41 6TH A MAIN ROAD J C NAGAR MAHALAKSHMIPURAM POST BANGALORE 560086 KA]]></VALUE><REPORTED-DATE>10-10-0035</REPORTED-DATE></ADDRESS-VARIATION><ADDRESS-VARIATION><BUREAU>CRIFHighMark</BUREAU><VALUE><![CDATA[NO 41 6TH MAIN J C NAGAR KURUBARAHALLI BANGALORE BANGALORE KARNATAKA 560086 560086 KA]]></VALUE><REPORTED-DATE>10-10-0035</REPORTED-DATE></ADDRESS-VARIATION><ADDRESS-VARIATION><BUREAU>CRIFHighMark</BUREAU><VALUE><![CDATA[NO 41 DNO 303 J C NAGAR 6TH A CROSS MAHALAKSHMIPURAM POST BANGALORE 560086 KA]]></VALUE><REPORTED-DATE>07-01-0037</REPORTED-DATE></ADDRESS-VARIATION><ADDRESS-VARIATION><BUREAU>CRIFHighMark</BUREAU><VALUE><![CDATA[NO. 121,  11TH CROSS 6TH MAIN ROAD J.C.NAGAR KURUBARAHALLI BANGALORE 560006 KA]]></VALUE><REPORTED-DATE>05-04-0037</REPORTED-DATE></ADDRESS-VARIATION><ADDRESS-VARIATION><BUREAU>CRIFHighMark</BUREAU><VALUE><![CDATA[NO. 121,  11TH CROSS 6TH MAIN ROAD KURUBARAHALLI BANGALORE 560006 KA]]></VALUE><REPORTED-DATE>30-01-0037</REPORTED-DATE></ADDRESS-VARIATION><ADDRESS-VARIATION><BUREAU>CRIFHighMark</BUREAU><VALUE><![CDATA[NO. 121,  11TH CROSS 6TH MAIN ROAD KURUBARAHALLI J.C.NAGAR BANGALORE 560006 KA]]></VALUE><REPORTED-DATE>02-05-0036</REPORTED-DATE></ADDRESS-VARIATION><ADDRESS-VARIATION><BUREAU>CRIFHighMark</BUREAU><VALUE><![CDATA[NO. 62  and  63,  2ND CROSS,  LAVAKUSHA NAGAR NEAR SHIVA GANAPATHI TEMPLE LAGGERE VILL, YESHWANTHPURA HOB BANGALORE 560059 KA]]></VALUE><REPORTED-DATE>10-10-0035</REPORTED-DATE></ADDRESS-VARIATION><ADDRESS-VARIATION><BUREAU>CRIFHighMark</BUREAU><VALUE><![CDATA[NO.121 6TH A MAIN 11TH CROSS J C   NAGAR  BANGALORE 560086 KA]]></VALUE><REPORTED-DATE>06-08-0033</REPORTED-DATE></ADDRESS-VARIATION><ADDRESS-VARIATION><BUREAU>CRIFHighMark</BUREAU><VALUE><![CDATA[NO.121,  6TH A MAIN,  11TH CROSS,  J C   NAGAR,   BANGALORE 560086 KA]]></VALUE><REPORTED-DATE>03-12-0013</REPORTED-DATE></ADDRESS-VARIATION><ADDRESS-VARIATION><BUREAU>CRIFHighMark</BUREAU><VALUE><![CDATA[NO.121,  6TH A MAIN, 11TH CROSS, J C NAGAR,  BANGALORE 560086 AP]]></VALUE><REPORTED-DATE>03-08-0006</REPORTED-DATE></ADDRESS-VARIATION><ADDRESS-VARIATION><BUREAU>CRIFHighMark</BUREAU><VALUE><![CDATA[NO.121, 11TH CROSS,  6TH MAIN ROAD, J C NAGAR BANGALORE BANGALORE DIST, KARNATAKA BANGALORE 560086 KA]]></VALUE><REPORTED-DATE>30-09-0035</REPORTED-DATE></ADDRESS-VARIATION></ADDRESS-VARIATIONS></PERSONAL-INFO-VARIATIONS><EMP-INFOS></EMP-INFOS><MISCELLANEOUSES></MISCELLANEOUSES></REPORT-SEGMENT></CNS-QUAD-MERGE-REPORT>"
            }
        },
        "loanDetails": {
            "loanAmount": "1000000",
            "receivedROI": "10",
            "applicationNum": "1000025431",
            "receivedTenure": "24",
            "monthlyObligation": ""
        },
        "additionalDetails": {
            "add1": "",
            "add2": "",
            "add3": ""
        }
    },
    "partner": "NP",
    "product": "PL",
    "customerId": "1000025431",
    "applicationId": "50031018TESTING"
}